{
  "global": {
    "parseVersion": "1.4.2"
  },
  "applications": {
    "_default": {
      "link": "noelapp"
    },
    "noelapp": {
      "applicationId": "jLks4jkz2cM0TgD3lbvvxR6RhXemnd2C1aY0B9e4",
      "masterKey": "LZr1ASspuX8RFMs8OdBvE7X3GywBxGlRpFZ4NC77"
    }
  }
}